<?xml version="1.0" encoding="utf-8"?>
<!-- Generator: Adobe Illustrator 16.0.0, SVG Export Plug-In . SVG Version: 6.00 Build 0)  -->
<!DOCTYPE svg PUBLIC "-//W3C//DTD SVG 1.1//EN" "http://www.w3.org/Graphics/SVG/1.1/DTD/svg11.dtd">
<svg version="1.1" id="Layer_1" xmlns="http://www.w3.org/2000/svg" xmlns:xlink="http://www.w3.org/1999/xlink" x="0px" y="0px"
	 width="34.093px" height="36.918px" viewBox="0 0 34.093 36.918" enable-background="new 0 0 34.093 36.918" xml:space="preserve">
<g>
	<g>
		<g>
			<polygon fill="#231F20" points="14.909,22.16 19.174,22.16 17.042,18.467 			"/>
			<polygon fill="#231F20" points="12.776,25.841 21.305,25.841 23.433,29.531 10.605,29.531 			"/>
			<polygon fill="#231F20" points="8.511,33.226 25.57,33.226 23.38,36.918 10.644,36.918 			"/>
			<polygon fill="#231F20" points="8.511,3.694 17.042,18.467 25.57,3.694 23.433,0 10.644,0 			"/>
			<g>
				<polygon fill="#FFFFFF" points="6.379,14.774 14.909,14.774 10.644,7.387 6.379,7.387 0,18.467 2.126,22.16 				"/>
				<polygon fill="#FFFFFF" points="8.512,25.841 4.253,25.841 6.379,29.531 10.605,29.531 17.042,18.467 14.909,14.774 				"/>
			</g>
			<g>
				<polygon fill="#FFFFFF" points="27.715,14.774 19.186,14.774 23.433,7.387 27.702,7.387 34.093,18.467 31.967,22.16 				"/>
				<polygon fill="#FFFFFF" points="25.581,25.841 29.841,25.841 27.715,29.531 23.488,29.531 17.053,18.467 19.186,14.774 				"/>
			</g>
		</g>
	</g>
</g>
</svg>
