<?xml version="1.0" encoding="utf-8"?>
<!-- Generator: Adobe Illustrator 16.0.0, SVG Export Plug-In . SVG Version: 6.00 Build 0)  -->
<!DOCTYPE svg PUBLIC "-//W3C//DTD SVG 1.1//EN" "http://www.w3.org/Graphics/SVG/1.1/DTD/svg11.dtd">
<svg version="1.1" id="Layer_1" xmlns="http://www.w3.org/2000/svg" xmlns:xlink="http://www.w3.org/1999/xlink" x="0px" y="0px"
	 width="40px" height="39.967px" viewBox="0 0 40 39.967" enable-background="new 0 0 40 39.967" xml:space="preserve">
<rect y="-0.033" fill-rule="evenodd" clip-rule="evenodd" fill="#FCB415" width="40" height="40"/>
<path fill-rule="evenodd" clip-rule="evenodd" d="M30.626,25.365c0.041,0.062,0.098,0.125,0.108,0.194
	c0.013,0.096,0.035,0.176,0.096,0.252c0.057,0.073,0.036,0.179,0.073,0.26c0.106,0.24,0.161,0.496,0.251,0.741
	c0.062,0.167,0.048,0.36,0.165,0.512c-0.026,0.128,0.048,0.245,0.044,0.366c-0.002,0.106,0.066,0.168,0.101,0.299
	c0,0.049-0.034,0.166,0.008,0.236c0.061,0.097,0.018,0.187,0.042,0.275c0.025,0.085,0.06,0.169,0.087,0.254
	c0.006,0.021,0.008,0.046,0.009,0.068c0.017,0.347,0.034,0.696,0.047,1.043c0.006,0.12,0.002,0.238,0.002,0.351
	c0.784,0.433,1.104,0.863,1.304,1.382c-0.021,0.041-0.041,0.081-0.065,0.13c-0.062,0-0.133,0-0.206,0
	c-0.055-0.068-0.103-0.149-0.169-0.213c-0.063-0.062-0.115-0.133-0.178-0.193c-0.061-0.061-0.125-0.12-0.193-0.178
	c-0.062-0.054-0.139-0.09-0.208-0.134c-0.077-0.05-0.148-0.124-0.23-0.138c-0.094-0.017-0.173-0.048-0.257-0.086
	c-0.081-0.037-0.172-0.053-0.253-0.077c-0.082-0.109-0.167-0.218-0.246-0.331c-0.043-0.06-0.095-0.123-0.114-0.193
	c-0.021-0.065-0.162-0.038-0.104-0.147c0.003-0.005,0.002-0.02-0.003-0.021c-0.15-0.091-0.13-0.304-0.252-0.363
	c-0.039-0.081-0.064-0.127-0.082-0.176c-0.038-0.113-0.165-0.188-0.146-0.326c-0.169-0.051-0.095-0.234-0.183-0.332
	c-0.094-0.102-0.102-0.247-0.169-0.364c-0.037-0.062-0.034-0.15-0.074-0.209c-0.08-0.124-0.107-0.264-0.154-0.396
	c-0.045-0.127-0.099-0.25-0.144-0.376c-0.044-0.127-0.086-0.256-0.126-0.382c-0.035-0.116-0.04-0.229,0.028-0.334
	c-0.058-0.082-0.122-0.159-0.17-0.245c-0.043-0.078-0.071-0.164-0.104-0.247c-0.011-0.028-0.018-0.06-0.015-0.09
	c0.011-0.182-0.07-0.343-0.113-0.512C29.021,25.615,29,25.564,29,25.511c0-0.171-0.044-0.33-0.096-0.491
	c-0.033-0.104-0.057-0.206-0.052-0.318c0.011-0.333-0.078-0.661-0.049-0.995c0.003-0.056-0.036-0.115-0.045-0.173
	c-0.007-0.063-0.001-0.128-0.001-0.193c-0.114-0.066-0.213-0.154-0.351-0.16c-0.024-0.001-0.054,0.004-0.068-0.01
	c-0.079-0.076-0.164-0.141-0.282-0.135c-0.092-0.147-0.299-0.14-0.38-0.29c-0.04,0-0.071,0-0.104,0
	c-0.031-0.097-0.121-0.112-0.197-0.154c-0.087-0.049-0.169-0.114-0.235-0.188c-0.06-0.065-0.139-0.102-0.195-0.177
	c-0.049-0.066-0.12-0.135-0.206-0.178c-0.073-0.036-0.08-0.158-0.204-0.157c-0.001,0.184,0.076,0.361,0.105,0.545
	c0.004,0.028,0.041,0.057,0.037,0.08c-0.03,0.231,0.06,0.453,0.051,0.682c-0.012,0.342,0.083,0.677,0.049,1.019
	c-0.017,0.162-0.038,0.324-0.047,0.488c-0.009,0.16,0.031,0.331-0.01,0.48c-0.056,0.206-0.022,0.408-0.042,0.61
	c-0.009,0.099-0.03,0.196-0.047,0.294c-0.015,0.081-0.037,0.163-0.047,0.246c-0.008,0.076,0,0.15-0.045,0.224
	c-0.027,0.049-0.005,0.126-0.005,0.191c0,0.081,0.012,0.163-0.003,0.24c-0.014,0.073-0.052,0.14-0.077,0.21
	c-0.006,0.013-0.015,0.027-0.016,0.042c-0.018,0.153-0.019,0.312-0.053,0.463c-0.037,0.165-0.045,0.35-0.188,0.476
	c0.089,0.104,0.025,0.228,0.038,0.287c-0.056,0.176-0.134,0.306-0.128,0.429c0.009,0.176-0.091,0.306-0.123,0.462
	c-0.036,0.183-0.091,0.362-0.173,0.532c-0.021,0.046-0.002,0.112-0.002,0.168c-0.12,0.125-0.159,0.277-0.146,0.408
	c-0.057,0.111-0.111,0.188-0.135,0.272c-0.025,0.089-0.047,0.172-0.103,0.25c-0.036,0.05-0.044,0.127-0.052,0.194
	c-0.008,0.096-0.146,0.131-0.105,0.246c-0.095,0.169-0.169,0.349-0.269,0.518c-0.063,0.106-0.094,0.236-0.16,0.345
	c-0.171,0.273-0.34,0.55-0.499,0.831c-0.09,0.16-0.224,0.294-0.338,0.441c-0.03,0.043-0.05,0.094-0.087,0.131
	c-0.035,0.038-0.083,0.064-0.135,0.101c0,0.019,0,0.05,0,0.085c-0.074,0.036-0.155,0.068-0.164,0.167
	c-0.126-0.003-0.117,0.13-0.186,0.187c-0.067,0.057-0.139,0.115-0.185,0.188c-0.051,0.082-0.18,0.054-0.201,0.181
	c-0.01,0.059-0.108,0.103-0.193,0.174c0.006,0-0.026,0-0.066,0c-0.026,0.177-0.216,0.163-0.315,0.264
	c-0.081,0.086-0.17,0.171-0.294,0.21c-0.062,0.02-0.118,0.066-0.171,0.11c-0.123,0.104-0.283,0.134-0.417,0.224
	c-0.127,0.083-0.277,0.161-0.427,0.186c-0.235,0.035-0.431,0.205-0.682,0.174c-0.071-0.009-0.16,0.062-0.218,0.038
	c-0.124-0.051-0.246-0.037-0.379-0.042c-0.021-0.026-0.046-0.058-0.061-0.075c-0.176-0.05-0.354-0.034-0.483-0.165
	c-0.004-0.004-0.021,0.002-0.022-0.002c-0.055-0.097-0.171-0.005-0.235-0.078c-0.057-0.064-0.132-0.095-0.217-0.12
	c-0.082-0.023-0.154-0.089-0.231-0.136c-0.156-0.092-0.308-0.19-0.469-0.272c-0.165-0.083-0.306-0.206-0.442-0.32
	c-0.162-0.134-0.331-0.267-0.476-0.418c-0.207-0.221-0.434-0.426-0.6-0.684c-0.021-0.033-0.073-0.049-0.117-0.076
	c0-0.024,0-0.056,0-0.086c-0.221-0.1-0.252-0.362-0.438-0.5c0-0.022,0-0.054,0-0.052c-0.107-0.165-0.2-0.304-0.289-0.446
	c-0.086-0.14-0.171-0.285-0.235-0.434c-0.069-0.158-0.155-0.307-0.221-0.464c-0.06-0.147-0.123-0.308-0.227-0.439
	c-0.022-0.028-0.031-0.066-0.043-0.104c-0.012-0.035-0.01-0.078-0.027-0.108c-0.088-0.143-0.116-0.307-0.168-0.463
	c-0.016-0.049-0.05-0.092-0.093-0.169c-0.001-0.126-0.011-0.289-0.148-0.408c0.005-0.094-0.001-0.182-0.044-0.271
	c-0.045-0.093-0.073-0.195-0.098-0.297c-0.023-0.098-0.031-0.197-0.051-0.294c-0.011-0.051-0.021-0.107-0.052-0.147
	c-0.029-0.04-0.049-0.076-0.045-0.127c0.016-0.18-0.079-0.34-0.104-0.513c-0.006-0.035-0.036-0.068-0.038-0.104
	c-0.007-0.09,0.027-0.193-0.009-0.263c-0.051-0.093-0.023-0.184-0.044-0.272c-0.02-0.078-0.065-0.149-0.093-0.227
	c-0.011-0.029,0-0.064-0.002-0.098c-0.016-0.209,0-0.43-0.056-0.629c-0.091-0.324-0.057-0.653-0.1-0.977
	c-0.033-0.261,0.004-0.524-0.044-0.777c-0.066-0.342-0.029-0.681-0.039-1.021c-0.004-0.129,0.035-0.261,0.043-0.391
	c0.009-0.136-0.025-0.282,0.01-0.409c0.045-0.156,0.032-0.309,0.042-0.465c0.001-0.029,0.008-0.062,0.022-0.088
	c0.079-0.133,0.043-0.298,0.121-0.433c-0.042-0.181,0.079-0.321,0.117-0.483c0.018-0.07,0.023-0.069,0.006-0.196
	c-0.127-0.017-0.104,0.162-0.216,0.165c-0.032,0.091-0.158,0.112-0.179,0.188c-0.028,0.108-0.201,0.078-0.163,0.221
	c-0.042,0.002-0.072,0.005-0.121,0.009c-0.016,0.027-0.028,0.071-0.059,0.1c-0.029,0.03-0.083,0.039-0.112,0.071
	c-0.164,0.182-0.364,0.316-0.559,0.462c-0.134,0.1-0.273,0.193-0.409,0.291c-0.103,0.075-0.242,0.111-0.312,0.233
	c-0.142-0.027-0.177,0.109-0.269,0.167c0.083,0.057,0.069,0.146,0.048,0.2c-0.077,0.187-0.028,0.376-0.043,0.563
	c-0.02,0.233-0.073,0.467-0.05,0.704c-0.085,0.156-0.066,0.34-0.131,0.502c-0.004,0.014-0.014,0.028-0.013,0.042
	c0.022,0.23-0.075,0.433-0.139,0.644c-0.012,0.037-0.007,0.078-0.007,0.119c-0.002,0.068-0.008,0.131-0.045,0.198
	c-0.048,0.092-0.096,0.196-0.094,0.297c0.001,0.168-0.086,0.306-0.115,0.463c-0.019,0.102-0.063,0.198-0.1,0.296
	c-0.038,0.1-0.083,0.193-0.085,0.305c-0.002,0.048-0.048,0.092-0.067,0.14c-0.03,0.068-0.082,0.128-0.078,0.211
	c0.003,0.034-0.021,0.074-0.045,0.101c-0.066,0.072-0.098,0.151-0.1,0.25c0,0.042-0.028,0.085-0.045,0.125
	c-0.042,0.096-0.07,0.203-0.131,0.284c-0.068,0.089-0.093,0.188-0.111,0.292c-0.127,0.062-0.102,0.216-0.187,0.308
	c-0.048,0.052-0.071,0.13-0.102,0.197c-0.007,0.014,0.003,0.041-0.005,0.045c-0.146,0.094-0.134,0.303-0.287,0.382
	c0,0.04,0,0.072,0,0.062c-0.097,0.135-0.173,0.24-0.252,0.352c-0.168,0.011-0.313-0.056-0.456-0.101
	c-0.023-0.256-0.046-0.505-0.071-0.775c-0.047,0.018-0.084,0.032-0.122,0.046c-0.003-0.009-0.016-0.022-0.016-0.035
	c0.011-0.252,0.075-0.498,0.049-0.753c-0.002-0.026,0.027-0.054,0.032-0.083c0.039-0.2,0.092-0.402,0.104-0.606
	c0.006-0.111,0.017-0.234,0.066-0.312c0.052-0.082,0.014-0.165,0.062-0.242c0.042-0.065,0.022-0.169,0.024-0.2
	c0.061-0.168,0.13-0.285,0.137-0.408c0.008-0.148,0.075-0.278,0.114-0.415c0.03-0.102,0.038-0.218,0.102-0.32
	c0.054-0.083,0.097-0.19,0.082-0.304c-0.001-0.01,0.02-0.022,0.026-0.036c0.047-0.118,0.103-0.228,0.13-0.36
	c0.033-0.162,0.141-0.309,0.21-0.466c0.037-0.081,0.061-0.168,0.097-0.274c-0.006,0.002,0.016-0.006,0.05-0.017
	c0.052-0.1,0.044-0.236,0.141-0.336c0.082-0.086,0.066-0.229,0.163-0.319c0.038-0.035,0.028-0.116,0.055-0.169
	c0.023-0.047,0.104-0.045,0.108-0.121c0.003-0.043,0.03-0.084,0.042-0.112c0.091-0.135,0.178-0.262,0.263-0.39
	c0.06-0.087,0.115-0.177,0.172-0.266c0.14-0.226,0.313-0.427,0.436-0.665c0.063-0.127,0.189-0.224,0.278-0.341
	c0.292-0.384,0.654-0.699,0.996-1.035c0.118-0.114,0.239-0.238,0.395-0.312c0.041-0.02,0.061-0.085,0.089-0.13
	c0.031,0,0.063,0,0.096,0c0.043-0.162,0.208-0.194,0.313-0.286c0.059-0.049,0.145-0.065,0.175-0.148
	c0.122,0.026,0.154-0.098,0.233-0.137c0.072-0.036,0.158-0.042,0.181-0.138c0.124,0.018,0.173-0.123,0.284-0.137
	c-0.123-0.015-0.244-0.062-0.361,0.019c-0.017,0.012-0.047,0.004-0.07,0.006c-0.187,0.016-0.381,0.005-0.558,0.054
	c-0.269,0.075-0.537,0.042-0.804,0.037c-0.254-0.006-0.501,0.056-0.754,0.056c-0.026,0-0.053,0.031-0.08,0.035
	c-0.106,0.015-0.201,0.075-0.314,0.062c-0.048-0.004-0.105,0.053-0.148,0.041c-0.116-0.032-0.137,0.124-0.251,0.108
	c-0.072-0.011-0.152,0.05-0.227,0.077c-0.026,0.268-0.051,0.516-0.069,0.709c-0.056,0.178-0.121,0.304-0.129,0.434
	c-0.006,0.117-0.085,0.192-0.108,0.296c-0.023,0.101-0.037,0.212-0.132,0.285c-0.021,0.015-0.028,0.051-0.034,0.08
	c-0.041,0.171-0.142,0.313-0.226,0.463c-0.082,0.145-0.184,0.278-0.271,0.42c-0.117,0.189-0.289,0.337-0.403,0.532
	c-0.035,0.06-0.144,0.077-0.158,0.173c-0.09,0.007-0.122,0.093-0.186,0.137c-0.119,0.081-0.226,0.179-0.349,0.256
	c-0.123,0.076-0.233,0.173-0.355,0.252c-0.055,0.036-0.121,0.08-0.182,0.079c-0.117-0.003-0.201,0.072-0.3,0.096
	c-0.185,0.044-0.3,0.202-0.475,0.259C7.671,24.7,7.668,24.772,7.604,24.79c-0.039,0.011-0.051,0.107-0.09,0.122
	c-0.057,0.021-0.089,0.05-0.123,0.096c-0.041,0.056-0.096,0.102-0.143,0.154c-0.045,0.051-0.086,0.104-0.124,0.15
	c-0.114-0.031-0.114-0.031-0.224-0.157c0.059-0.071,0-0.209,0.141-0.245c-0.023-0.107,0.072-0.165,0.115-0.241
	c0.038-0.064,0.071-0.154,0.151-0.182c0.08-0.025,0.063-0.127,0.15-0.153c0.053-0.015,0.087-0.091,0.131-0.139
	c0.04-0.042,0.082-0.082,0.137-0.137c0.112,0.036,0.145-0.147,0.247-0.146c0.135,0,0.153-0.162,0.29-0.16c0-0.062,0-0.125,0-0.187
	c0.001-0.137-0.03-0.283,0.011-0.408c0.037-0.114,0.05-0.241,0.102-0.343c0.054-0.102,0.002-0.211,0.075-0.309
	c0.061-0.08,0.116-0.178,0.108-0.296c-0.003-0.04,0.077-0.081,0.087-0.129c0.032-0.166,0.148-0.293,0.201-0.449
	c0.03-0.092,0.086-0.175,0.143-0.255c0.113-0.155,0.234-0.306,0.352-0.459c0.047-0.061,0.081-0.136,0.14-0.182
	c0.064-0.051,0.067-0.146,0.163-0.176c0.072-0.022,0.075-0.141,0.168-0.168c0.031-0.009,0.048-0.073,0.07-0.111
	c0.032-0.001,0.064-0.001,0.092-0.001c0.149-0.227,0.397-0.318,0.609-0.461c0.016-0.04-0.035-0.097,0.059-0.127
	c0.065-0.023,0.106-0.122,0.16-0.186c0.041-0.05,0.039-0.128,0.127-0.15c0.045-0.013,0.066-0.096,0.11-0.133
	c0.051-0.042,0.126-0.059,0.172-0.105c0.126-0.129,0.316-0.148,0.466-0.287c0.153,0.036,0.304-0.057,0.461-0.105
	c0.076-0.024,0.146-0.04,0.225-0.04c0.41-0.001,0.821-0.004,1.231,0.002c0.099,0.001,0.198-0.032,0.3,0.037
	c0.078,0.052,0.206-0.041,0.288,0.056c0.252-0.039,0.495,0.079,0.754,0.043c-0.006-0.115-0.106-0.146-0.146-0.214
	c-0.007-0.104-0.024-0.197-0.117-0.225c-0.045-0.125-0.062-0.259-0.134-0.344c-0.083-0.101,0.032-0.254-0.133-0.322
	c-0.3,0-0.625-0.03-0.942,0.009c-0.269,0.033-0.54,0-0.801,0.048c-0.277,0.05-0.553,0.031-0.827,0.039
	c-0.273,0.007-0.549-0.005-0.821,0.003c-0.315,0.009-0.632,0.037-0.947,0.045c-0.322,0.008-0.649-0.035-0.965,0.011
	c-0.375,0.056-0.75-0.008-1.116,0.047c-0.294,0.045-0.584,0.026-0.875,0.04c-0.031,0.001-0.062,0-0.094,0
	c-0.007-0.033-0.012-0.054-0.017-0.078c-0.118-0.023-0.237-0.046-0.356-0.068c-0.024,0.024-0.047,0.046-0.071,0.071
	c0.015,0.017,0.029,0.033,0.044,0.05c-0.012,0.008-0.022,0.023-0.036,0.023c-1.377,0-2.754,0.002-4.132-0.001
	c-0.114,0-0.25,0.003-0.336-0.055c-0.098-0.064-0.196-0.014-0.291-0.064c-0.083-0.043-0.2-0.023-0.252-0.027
	c-0.156-0.056-0.268-0.125-0.38-0.126c-0.154-0.002-0.281-0.071-0.414-0.118c-0.092-0.033-0.179-0.041-0.266-0.042
	c-0.04-0.035-0.074-0.091-0.111-0.093c-0.239-0.013-0.431-0.184-0.663-0.208c-0.026-0.027-0.049-0.071-0.083-0.083
	c-0.107-0.038-0.227-0.042-0.304-0.144c-0.176-0.022-0.299-0.165-0.472-0.205c-0.111-0.026-0.207-0.121-0.307-0.189
	c-0.113-0.077-0.217-0.174-0.339-0.232c-0.061-0.029-0.113-0.065-0.144-0.112c-0.033-0.05-0.147-0.01-0.121-0.113
	c-0.067-0.052-0.138-0.099-0.201-0.155c-0.084-0.076-0.16-0.158-0.24-0.238c-0.086-0.085-0.178-0.165-0.255-0.258
	c-0.062-0.076-0.122-0.164-0.191-0.225c-0.125-0.113-0.225-0.24-0.317-0.376c-0.047-0.07-0.119-0.131-0.141-0.208
	c-0.021-0.072-0.16-0.064-0.103-0.171c-0.088-0.096-0.154-0.206-0.219-0.32c-0.1-0.176-0.23-0.333-0.268-0.542
	c-0.007-0.041-0.053-0.074-0.069-0.094c-0.031-0.136-0.033-0.27-0.092-0.369c-0.07-0.117-0.078-0.231-0.078-0.356
	c0.001-0.25,0-0.499,0-0.741c0.035-0.041,0.087-0.074,0.094-0.113c0.041-0.259,0.208-0.449,0.345-0.655
	c0.039-0.06,0.11-0.111,0.177-0.138c0.138-0.055,0.201-0.22,0.362-0.235c0.069-0.139,0.26-0.097,0.337-0.227
	c0.135-0.017,0.262-0.062,0.389-0.11c0.102-0.037,0.207-0.052,0.318-0.053c0.122,0,0.244-0.031,0.366-0.044
	c0.123-0.015,0.243,0,0.37-0.039c0.131-0.042,0.287-0.01,0.432-0.01s0.29-0.006,0.435,0.002c0.13,0.007,0.26,0.037,0.391,0.045
	c0.137,0.008,0.283-0.028,0.409,0.009c0.173,0.05,0.343,0.025,0.514,0.043c0.127,0.014,0.253,0.046,0.38,0.071
	c0.118,0.024,0.237,0.051,0.357,0.07c0.069,0.012,0.15-0.009,0.21,0.02c0.229,0.11,0.502,0.104,0.717,0.271c0.057,0,0.122,0,0.198,0
	c0.016,0.019,0.032,0.053,0.058,0.066c0.104,0.048,0.229,0.05,0.321,0.098c0.094,0.048,0.19,0.118,0.287,0.12
	c0.132,0.004,0.221,0.095,0.344,0.118c0.141,0.027,0.294,0.061,0.414,0.161c0.193,0.006,0.333,0.178,0.537,0.17
	c0.065-0.003,0.104,0.124,0.201,0.091c0.084,0.082,0.215,0.025,0.296,0.1c0.082,0.074,0.173,0.086,0.275,0.099
	c0.069,0.008,0.105,0.123,0.203,0.091c0.057,0.1,0.185,0.003,0.252,0.097c0.056,0.077,0.167,0.059,0.247,0.096
	c0.082,0.037,0.165,0.074,0.245,0.111c0.007,0.002,0.012,0.016,0.018,0.016c0.139-0.018,0.23,0.105,0.36,0.124
	c0.14,0.021,0.259,0.112,0.396,0.15c0.064,0.018,0.134,0.027,0.195,0.053c0.055,0.025,0.098,0.086,0.152,0.097
	c0.151,0.028,0.272,0.149,0.413,0.163c0.12,0.013,0.171,0.127,0.295,0.123c0.087-0.002,0.175,0.074,0.264,0.111
	c0.07,0.029,0.132,0.065,0.214,0.075c0.091,0.011,0.175,0.078,0.266,0.112c0.208,0.081,0.414,0.166,0.615,0.266
	c0.046,0.023,0.098,0.044,0.147,0.046c0.062,0.002,0.105,0.019,0.145,0.064c0.078,0.091,0.206,0.054,0.292,0.108
	c0.085,0.053,0.155,0.124,0.265,0.122c0.105-0.002,0.156,0.111,0.268,0.121c0.071,0.006,0.162,0.025,0.223,0.107
	c0.031,0.043,0.123,0.042,0.188,0.062c0.029,0.009,0.06,0.015,0.085,0.029c0.106,0.056,0.216,0.101,0.326,0.146
	c0.104,0.042,0.204,0.092,0.314,0.115c0.122,0.158,0.342,0.119,0.48,0.241c0.011,0.01,0.024,0.025,0.037,0.026
	c0.171,0.011,0.298,0.139,0.462,0.17c0.049,0.009,0.085,0.073,0.133,0.084c0.191,0.044,0.345,0.185,0.545,0.205
	c0.027,0.003,0.055,0.023,0.08,0.038c0.033,0.018,0.078,0.03,0.095,0.059c0.061,0.094,0.173,0.006,0.236,0.077
	c0.058,0.064,0.128,0.114,0.218,0.114c0.092,0,0.119,0.14,0.226,0.098c0.079,0.078,0.175,0.039,0.27,0.05c0-0.095,0-0.173,0-0.236
	c0.04-0.067,0.072-0.118,0.103-0.17c0.055-0.092,0.022-0.21,0.098-0.298c0.065-0.078,0.091-0.173,0.095-0.274
	c0.147-0.072,0.091-0.284,0.301-0.36c-0.188-0.04-0.319-0.076-0.453-0.094c-0.133-0.018-0.269-0.018-0.397-0.026
	c-0.181-0.098-0.37-0.149-0.589-0.136c-0.049-0.153-0.207-0.087-0.317-0.137c-0.076-0.035-0.168-0.05-0.251-0.093
	c-0.071-0.039-0.148-0.085-0.239-0.062c-0.1-0.09-0.216-0.139-0.35-0.146c-0.086-0.125-0.246-0.115-0.354-0.194
	c-0.104-0.077-0.233-0.104-0.335-0.188c-0.072-0.06-0.171-0.077-0.254-0.14c-0.082-0.064-0.168-0.138-0.26-0.184
	c-0.063-0.032-0.116-0.066-0.166-0.113c-0.056-0.053-0.114-0.12-0.182-0.141c-0.088-0.026-0.117-0.106-0.184-0.144
	c-0.169-0.093-0.277-0.25-0.412-0.377c-0.15-0.14-0.263-0.323-0.39-0.488c0.019-0.084-0.141-0.039-0.104-0.151
	c0.013-0.041-0.044-0.107-0.074-0.158c-0.034-0.059-0.076-0.113-0.112-0.171c-0.029-0.045-0.055-0.091-0.087-0.134
	c-0.032-0.076-0.008-0.158-0.046-0.247c-0.037-0.086-0.038-0.212,0.016-0.321c0.025-0.052,0.024-0.124,0.019-0.184
	c-0.025-0.253,0.069-0.484,0.122-0.724c0.004-0.022,0.024-0.043,0.023-0.062c-0.02-0.192,0.093-0.352,0.124-0.529
	c0.034-0.204,0.181-0.371,0.167-0.584c0.074-0.114,0.108-0.247,0.172-0.362c0.036-0.067,0.074-0.137,0.089-0.205
	c0.026-0.121,0.143-0.177,0.18-0.308c-0.148-0.102-0.313-0.194-0.454-0.315C9.845,7.206,9.724,7.055,9.574,6.896
	C9.561,6.855,9.547,6.778,9.508,6.715C9.473,6.657,9.422,6.618,9.417,6.533C9.411,6.467,9.341,6.406,9.291,6.332
	c0.025-0.044,0.058-0.1,0.091-0.158c0.06,0,0.114,0,0.188,0c0.06,0.083,0.124,0.179,0.192,0.272c0.039,0.055,0.076,0.117,0.128,0.16
	c0.096,0.082,0.192,0.162,0.267,0.267c0.016,0.021,0.054,0.025,0.081,0.036c0.085,0.033,0.167,0.063,0.24,0.124
	c0.042,0.036,0.111,0.038,0.171,0.052c0.168,0.039,0.338,0.075,0.508,0.116c0.021,0.005,0.034,0.032,0.055,0.053
	c0,0.198,0.005,0.399-0.002,0.599c-0.004,0.099-0.037,0.196-0.044,0.294c-0.009,0.096,0.021,0.201-0.008,0.289
	c-0.043,0.128-0.077,0.258-0.112,0.387C11.037,8.852,11.02,8.88,11.02,8.909c0.005,0.119-0.012,0.224-0.089,0.327
	c-0.045,0.061-0.033,0.161-0.06,0.24c-0.022,0.07-0.069,0.132-0.092,0.204c-0.025,0.078-0.032,0.163-0.052,0.245
	c-0.006,0.028-0.025,0.054-0.042,0.078c-0.027,0.045-0.078,0.089-0.081,0.134c-0.007,0.131-0.094,0.221-0.137,0.332
	c-0.037,0.097-0.076,0.183-0.155,0.252c-0.022,0.02-0.017,0.072-0.022,0.109c0.212,0.123,0.424,0.238,0.627,0.365
	c0.205,0.128,0.448,0.194,0.609,0.383c0.037,0.002,0.083-0.009,0.098,0.008c0.126,0.143,0.324,0.172,0.46,0.289
	c0.112,0.099,0.266,0.124,0.361,0.239c0.062,0.074,0.167,0.054,0.242,0.128c0.068,0.069,0.19,0.091,0.259,0.18
	c0.048,0.062,0.154-0.013,0.183,0.084c0.161,0.063,0.275,0.216,0.459,0.234c0.083,0.17,0.326,0.116,0.379,0.246
	c0.202,0.115,0.365,0.209,0.523,0.307c0.166,0.104,0.342,0.188,0.507,0.297c0.153,0.103,0.305,0.222,0.488,0.274
	c0.066-0.177,0.229-0.254,0.337-0.407c-0.14-0.097-0.281-0.181-0.406-0.285c-0.113-0.094-0.21-0.209-0.336-0.338
	c-0.002-0.006-0.002-0.06-0.026-0.092c-0.114-0.135-0.165-0.288-0.171-0.463c-0.002-0.082-0.043-0.164-0.043-0.245
	c0.001-0.177,0.032-0.351,0.087-0.519c0.002-0.008,0.008-0.015,0.007-0.021c-0.028-0.154,0.042-0.285,0.097-0.42
	c0.05-0.124,0.095-0.251,0.146-0.374c0.159-0.381,0.41-0.704,0.641-1.041c0.118-0.039,0.143-0.169,0.232-0.239
	c0.103-0.078,0.181-0.184,0.277-0.27c0.088-0.078,0.152-0.177,0.264-0.235c0.062-0.033,0.074-0.147,0.173-0.156
	c0.041-0.152,0.206-0.17,0.295-0.273c0.184-0.213,0.46-0.301,0.664-0.487c0.048-0.043,0.124-0.053,0.18-0.09
	c0.139-0.091,0.315-0.108,0.436-0.235c0.021-0.021,0.074-0.011,0.136-0.019c-0.074-0.033-0.025-0.137-0.13-0.137
	c-0.083,0-0.042-0.119-0.127-0.148c-0.088-0.032-0.204-0.1-0.226-0.176c-0.031-0.106-0.152-0.085-0.177-0.191
	c-0.018-0.073-0.118-0.135-0.183-0.178c-0.077-0.05-0.086-0.155-0.188-0.179c-0.037-0.008-0.062-0.074-0.091-0.115
	c-0.026-0.041-0.094-0.015-0.109-0.098c-0.016-0.08-0.105-0.145-0.163-0.217c-0.123,0.021-0.085-0.163-0.198-0.154
	c-0.103-0.182-0.274-0.302-0.401-0.463c-0.138-0.175-0.296-0.334-0.432-0.513c-0.021-0.026-0.064-0.035-0.099-0.053
	c0-0.031,0-0.063,0-0.083c-0.28-0.237-0.44-0.573-0.727-0.793c0-0.029,0-0.062,0-0.078c-0.118-0.142-0.23-0.273-0.338-0.408
	c-0.076-0.097-0.171-0.183-0.235-0.285c-0.07-0.112-0.158-0.207-0.229-0.316c-0.128-0.198-0.305-0.363-0.408-0.58
	c-0.017-0.033-0.071-0.047-0.094-0.079c-0.182-0.263-0.34-0.543-0.551-0.788c-0.064-0.074-0.081-0.189-0.121-0.288
	c0.034-0.101,0.069-0.207,0.109-0.325c0.165-0.073,0.35-0.1,0.551,0.011c0-0.004-0.002,0.022,0.012,0.038
	c0.217,0.248,0.36,0.546,0.55,0.814c0.072,0.103,0.159,0.202,0.219,0.313c0.063,0.118,0.14,0.219,0.227,0.318
	c0.054,0.061,0.076,0.147,0.124,0.213c0.098,0.138,0.219,0.262,0.303,0.407c0.137,0.237,0.341,0.426,0.464,0.672
	c0.024,0.049,0.076,0.085,0.142,0.156c-0.001-0.015,0.001,0.017,0.003,0.049c0.047,0.042,0.099,0.081,0.143,0.128
	c0.042,0.045,0.083,0.093,0.114,0.146c0.153,0.259,0.366,0.473,0.534,0.72c0.078,0.115,0.201,0.197,0.272,0.323
	c0.015,0.026,0.062,0.034,0.097,0.051c0,0.034,0,0.066,0,0.098c0.039,0.023,0.092,0.036,0.114,0.071
	c0.151,0.23,0.365,0.407,0.536,0.622c0.062,0.079,0.082,0.209,0.216,0.222c-0.009,0.122,0.127,0.127,0.177,0.21
	c0.04,0.065,0.104,0.166,0.178,0.183c0.106,0.025,0.076,0.178,0.195,0.168c0.01,0,0.021,0.034,0.033,0.051
	c0.113,0.149,0.227,0.299,0.404,0.384c0.027,0.013,0.037,0.062,0.057,0.099c0.036-0.007,0.079-0.005,0.11-0.023
	c0.119-0.066,0.246-0.077,0.378-0.081c0.179-0.005,0.357-0.037,0.537-0.044c0.185-0.008,0.37-0.001,0.555-0.002
	c0.221-0.001,0.434,0.067,0.658,0.057c0.102-0.006,0.212,0.067,0.287,0.093c0.112-0.094,0.202-0.17,0.294-0.246
	c0.01-0.008,0.035-0.003,0.042-0.013c0.061-0.11,0.153-0.194,0.228-0.291c0.071-0.092,0.215-0.123,0.229-0.26
	c0.11,0.001,0.111-0.134,0.195-0.159c0.088-0.026,0.088-0.122,0.166-0.169c0.113-0.07,0.209-0.194,0.273-0.315
	c0.058-0.11,0.173-0.155,0.229-0.263c0.041-0.082,0.106-0.151,0.169-0.22c0.028-0.032,0.075-0.05,0.118-0.077
	c0-0.024,0-0.056,0-0.092c0.077-0.032,0.116-0.1,0.171-0.161c0.258-0.29,0.495-0.593,0.711-0.916
	c0.095-0.012,0.093-0.103,0.136-0.158c0.034-0.045,0.077-0.084,0.133-0.143c-0.008-0.05,0.057-0.086,0.104-0.138
	c0.13-0.141,0.203-0.322,0.329-0.47c0.052-0.06,0.151-0.101,0.155-0.194c0.004-0.111,0.125-0.13,0.154-0.228
	c0.022-0.083,0.104-0.148,0.155-0.225c0.312-0.455,0.632-0.904,0.924-1.37c0.076-0.121,0.176-0.229,0.234-0.358
	c0.194-0.095,0.372-0.079,0.541-0.003c0.037,0.088,0.075,0.178,0.115,0.274c-0.034,0.095-0.07,0.201-0.101,0.291
	c-0.146,0.212-0.287,0.413-0.427,0.614c-0.048,0.069-0.091,0.143-0.146,0.205c-0.128,0.143-0.218,0.312-0.335,0.461
	c-0.12,0.152-0.249,0.298-0.357,0.457c-0.182,0.262-0.4,0.491-0.61,0.779c0.003-0.003-0.001,0.036-0.004,0.06
	c-0.278,0.229-0.442,0.551-0.72,0.807c0-0.001-0.001,0.029-0.004,0.065c-0.039,0.026-0.083,0.052-0.121,0.085
	c-0.034,0.032-0.021,0.111-0.101,0.099c-0.016,0.084-0.08,0.133-0.138,0.184c-0.061,0.052-0.107,0.12-0.158,0.177
	c-0.046,0.053-0.096,0.119-0.147,0.176c-0.052,0.061-0.116,0.111-0.167,0.173c-0.052,0.061-0.064,0.161-0.171,0.167
	c0.012,0.116-0.13,0.105-0.158,0.196c-0.024,0.08-0.145,0.102-0.146,0.205c-0.104,0.008-0.12,0.128-0.194,0.161
	c-0.088,0.039-0.093,0.143-0.186,0.184c-0.058,0.027-0.127,0.103-0.165,0.164c-0.043,0.07-0.128,0.084-0.155,0.147
	c-0.05,0.113-0.183,0.134-0.239,0.234c-0.126-0.013-0.055,0.227-0.216,0.14c0,0.062,0,0.094,0,0.125
	c0.138,0.053,0.229,0.217,0.414,0.165c0.011,0.033,0.018,0.083,0.031,0.086c0.165,0.034,0.285,0.169,0.469,0.239
	c0.094,0.072,0.219,0.165,0.34,0.262C23.576,8.5,23.71,8.61,23.829,8.74c0.044,0.05,0.109,0.079,0.158,0.125
	c0.24,0.238,0.488,0.469,0.715,0.72c0.163,0.18,0.311,0.378,0.433,0.593c0.071,0.125,0.179,0.232,0.229,0.363
	c0.036,0.093,0.067,0.18,0.123,0.265c0.047,0.071,0.053,0.17,0.081,0.256c0.022,0.071,0.053,0.139,0.087,0.206
	c0.018,0.104,0,0.208,0.052,0.317c0.044,0.093-0.034,0.221,0.054,0.316c-0.023,0.281-0.026,0.566-0.191,0.814
	c-0.027,0.044-0.045,0.093-0.077,0.155c-0.062,0.017-0.104,0.082-0.146,0.158c-0.036,0.062-0.114,0.1-0.173,0.147
	c-0.06,0.049-0.118,0.101-0.183,0.145c-0.066,0.045-0.156,0.058-0.21,0.145c0.114,0.124,0.224,0.243,0.354,0.384
	c0.01-0.002,0.059-0.001,0.094-0.022c0.193-0.118,0.381-0.245,0.577-0.36c0.156-0.091,0.317-0.173,0.461-0.286
	c0.021-0.017,0.062-0.005,0.096-0.007c0.077-0.058,0.132-0.136,0.248-0.159c0.083-0.016,0.135-0.137,0.252-0.148
	c0.097-0.009,0.136-0.129,0.246-0.153c0.097-0.022,0.182-0.106,0.27-0.165c0.019-0.013,0.031-0.044,0.052-0.049
	c0.222-0.05,0.371-0.239,0.57-0.316c0.136-0.053,0.231-0.161,0.373-0.207c0.126-0.04,0.226-0.153,0.341-0.229
	c0.03-0.021,0.073-0.02,0.127-0.033c0.055-0.142,0.232-0.137,0.346-0.234c0.101-0.086,0.218-0.191,0.373-0.196
	c0.099-0.113,0.246-0.149,0.365-0.233c0.114-0.083,0.245-0.142,0.381-0.218c-0.003-0.031,0.009-0.093-0.012-0.104
	c-0.16-0.097-0.124-0.318-0.27-0.422c-0.011-0.107-0.012-0.221-0.104-0.294c-0.094-0.073-0.042-0.186-0.094-0.277
	c-0.108-0.194-0.117-0.432-0.229-0.629c-0.015-0.025-0.019-0.059-0.018-0.088c0.012-0.181-0.079-0.34-0.104-0.513
	c-0.005-0.036-0.037-0.069-0.039-0.104c-0.023-0.38-0.043-0.759-0.064-1.123c0.095-0.138,0.235-0.099,0.346-0.142
	c0.09-0.035,0.194-0.033,0.291-0.052c0.044-0.009,0.1-0.02,0.122-0.05c0.058-0.076,0.146-0.082,0.219-0.119
	c0.087-0.045,0.189-0.104,0.227-0.186c0.043-0.093,0.186-0.09,0.177-0.213c0.112-0.018,0.103-0.13,0.151-0.197
	c0.038-0.052,0.09-0.093,0.143-0.145c0.047,0,0.101,0,0.168,0c0.03,0.049,0.066,0.107,0.095,0.154
	c-0.033,0.056-0.074,0.105-0.093,0.162c-0.049,0.15-0.154,0.274-0.199,0.412C30.929,7,30.847,7.099,30.756,7.188
	c-0.09,0.085-0.188,0.164-0.288,0.239c-0.102,0.077-0.209,0.145-0.319,0.22c0.056,0.052,0.021,0.148,0.114,0.165
	c0.016,0.003,0.037,0.027,0.04,0.045c0.039,0.209,0.168,0.381,0.241,0.576c0.04,0.105,0.062,0.215,0.101,0.322
	c0.017,0.049,0.048,0.093,0.069,0.133c0.046,0.172,0.09,0.34,0.137,0.507c0.011,0.043,0.036,0.088,0.031,0.13
	c-0.011,0.089,0.04,0.165,0.047,0.246c0.006,0.079,0.018,0.15,0.052,0.222c0.022,0.047,0.041,0.098,0.048,0.149
	c0.007,0.063-0.003,0.129,0.001,0.193c0.009,0.107-0.014,0.212,0.042,0.321c0.036,0.071,0.036,0.19-0.002,0.258
	c-0.045,0.086-0.028,0.167-0.035,0.211c-0.062,0.111-0.12,0.186-0.146,0.27c-0.032,0.104-0.126,0.165-0.156,0.276
	c-0.02,0.08-0.116,0.14-0.173,0.212c-0.095,0.121-0.171,0.259-0.278,0.365c-0.063,0.061-0.108,0.164-0.183,0.181
	c-0.106,0.025-0.082,0.151-0.193,0.175c-0.079,0.016-0.14,0.121-0.213,0.182c-0.039,0.035-0.084,0.066-0.132,0.091
	c-0.091,0.051-0.145,0.155-0.262,0.171c-0.065,0.01-0.103,0.109-0.139,0.116c-0.069,0.013-0.111,0.044-0.163,0.083
	c-0.104,0.078-0.205,0.186-0.321,0.206c-0.106,0.018-0.15,0.104-0.241,0.127c-0.083,0.021-0.177,0.043-0.242,0.124
	c-0.026,0.034-0.097,0.031-0.144,0.053c-0.095,0.043-0.217,0.036-0.28,0.142c-0.113-0.015-0.2,0.048-0.299,0.094
	c-0.106,0.051-0.229,0.086-0.346,0.095c-0.084,0.008-0.126,0.054-0.169,0.095c-0.104,0.032-0.217-0.042-0.302,0.056
	c-0.098-0.019-0.18,0.025-0.261,0.069c-0.026,0.014-0.06,0.03-0.084,0.026c-0.192-0.028-0.374,0.053-0.562,0.052
	c-0.029,0-0.058,0.016-0.085,0.026c-0.028,0.011-0.056,0.023-0.104,0.043c0.142,0.067,0.119,0.222,0.212,0.32
	c0.095,0.101,0.069,0.274,0.186,0.373c-0.001,0.145,0.034,0.273,0.146,0.375c0,0.08,0,0.16,0,0.252c0.084,0,0.17,0,0.27,0
	c0.115-0.119,0.285-0.16,0.448-0.194c0.007-0.034,0.011-0.056,0.016-0.077c0.062-0.006,0.114-0.011,0.168-0.017
	c0.098-0.012,0.134-0.137,0.234-0.135c0.092,0.003,0.157-0.047,0.231-0.085c0.079-0.042,0.161-0.087,0.247-0.1
	c0.096-0.014,0.131-0.153,0.247-0.107c0.061-0.076,0.193-0.028,0.233-0.136c0.192,0.041,0.299-0.186,0.492-0.158
	c0.035,0.005,0.087-0.033,0.114-0.066c0.051-0.062,0.119-0.063,0.183-0.086c0.092-0.034,0.182-0.07,0.261-0.132
	c0.114,0.048,0.161-0.078,0.249-0.098c0.043-0.01,0.083-0.034,0.126-0.047c0.028-0.008,0.073,0.004,0.089-0.013
	c0.139-0.143,0.352-0.134,0.503-0.251c0.037-0.029,0.109-0.007,0.156-0.029c0.089-0.04,0.167-0.115,0.256-0.136
	c0.093-0.022,0.176-0.047,0.246-0.112c0.012-0.011,0.021-0.031,0.034-0.033c0.333-0.044,0.601-0.26,0.92-0.347
	c0.062-0.018,0.115-0.074,0.179-0.091c0.058-0.016,0.116-0.009,0.174-0.049c0.142-0.099,0.331-0.098,0.463-0.228
	c0.035-0.036,0.115-0.032,0.176-0.037c0.11-0.009,0.177-0.122,0.286-0.124c0.112-0.002,0.186-0.065,0.262-0.132
	c0.054-0.047,0.129-0.014,0.198-0.043c0.078-0.032,0.145-0.099,0.219-0.108c0.079-0.01,0.146-0.057,0.222-0.054
	c0.101,0.004,0.122-0.136,0.251-0.109c0.076,0.016,0.17-0.083,0.262-0.111c0.085-0.027,0.163-0.083,0.262-0.071
	c0.072-0.129,0.218-0.11,0.328-0.136c0.09-0.02,0.118-0.134,0.225-0.108c0.079,0.02,0.136-0.054,0.207-0.078
	c0.071-0.023,0.136-0.06,0.214-0.073c0.081-0.013,0.174-0.029,0.25-0.096c0.052-0.045,0.14-0.071,0.209-0.068
	c0.115,0.004,0.163-0.125,0.268-0.115c0.108,0.009,0.203-0.053,0.268-0.106c0.079-0.066,0.164-0.027,0.242-0.067
	c0.199-0.1,0.428-0.129,0.624-0.244c0.07-0.041,0.164-0.053,0.237-0.058c0.112-0.007,0.143-0.147,0.276-0.116
	c0.079,0.018,0.189-0.042,0.27-0.091c0.115-0.07,0.252-0.048,0.365-0.112c0.118-0.067,0.245-0.075,0.379-0.082
	c0.118-0.006,0.234-0.048,0.355-0.072c0.127-0.025,0.254-0.067,0.381-0.064c0.342,0.008,0.678-0.09,1.02-0.052
	c0.312-0.097,0.632-0.036,0.947-0.045c0.121-0.003,0.244,0.035,0.365,0.043c0.121,0.008,0.25-0.025,0.362,0.009
	c0.124,0.039,0.248,0.021,0.367,0.046c0.083,0.018,0.17,0.039,0.253,0.085c0.089,0.05,0.216,0.031,0.305,0.081
	c0.086,0.048,0.156,0.123,0.266,0.119c0.037,0.102,0.139,0.116,0.217,0.165c0.085,0.054,0.16,0.121,0.237,0.186
	c0.233,0.199,0.316,0.324,0.46,0.651c0.032,0.069,0.083,0.128,0.13,0.199c0,0.085,0,0.181,0,0.266
	c-0.087,0.082-0.169,0.156-0.238,0.222c0,0.138,0,0.25,0,0.38c0.072,0.005,0.148,0.011,0.229,0.017
	c0.033,0.087-0.017,0.161-0.031,0.241c-0.024,0.127-0.11,0.229-0.12,0.365c-0.009,0.11-0.134,0.2-0.129,0.331
	c-0.169,0.17-0.222,0.417-0.39,0.589c-0.032,0.034-0.03,0.1-0.057,0.144c-0.019,0.031-0.066,0.02-0.091,0.079
	c-0.053,0.123-0.147,0.23-0.229,0.339c-0.021,0.026-0.064,0.035-0.101,0.053c0,0.031,0,0.062,0,0.091
	c-0.05,0.037-0.128,0.066-0.139,0.11c-0.018,0.074-0.07,0.106-0.113,0.146c-0.24,0.221-0.433,0.492-0.714,0.668
	c-0.164,0.265-0.493,0.319-0.689,0.544c-0.132,0.015-0.201,0.167-0.345,0.158c-0.128,0.109-0.293,0.149-0.435,0.234
	c-0.026,0.017-0.048,0.049-0.074,0.054c-0.218,0.036-0.399,0.163-0.597,0.25c-0.101,0.044-0.212,0.022-0.302,0.088
	c-0.042,0.031-0.094,0.048-0.18,0.093c-0.135-0.01-0.294,0.057-0.475,0.147c-0.149,0-0.317,0.041-0.478,0.119
	c-0.021,0.01-0.041,0.027-0.061,0.027c-0.287-0.001-0.561,0.083-0.835,0.146c-0.038,0.009-0.081,0-0.12,0c-1.74,0-3.48,0-5.22,0
	c-0.196,0-0.385-0.07-0.584-0.052c-0.192,0.018-0.394,0.035-0.579-0.003c-0.229-0.048-0.454-0.036-0.683-0.041
	c-0.233-0.005-0.468,0.02-0.7-0.005c-0.742-0.08-1.484-0.028-2.228-0.044c-0.247-0.078-0.508-0.008-0.753-0.055
	c-0.356-0.07-0.712-0.019-1.067-0.041c-0.064-0.004-0.13-0.008-0.177,0.081c0.023,0.117-0.048,0.229-0.092,0.35
	c-0.056,0.156-0.186,0.277-0.2,0.45c-0.002,0.013-0.014,0.03-0.024,0.037c-0.114,0.078-0.141,0.214-0.224,0.339
	c0.308,0,0.609,0.035,0.896-0.012c0.247-0.039,0.488-0.017,0.73-0.038c0.1-0.009,0.195-0.038,0.295-0.045
	c0.104-0.009,0.21-0.01,0.314,0c0.122,0.011,0.243-0.029,0.369,0.039c0.096,0.05,0.226-0.015,0.344,0.048
	c0.067,0.037,0.174,0.007,0.262,0.007c0.113,0.101,0.246,0.152,0.407,0.146c0.052,0.152,0.246,0.117,0.327,0.239
	c0.104,0.003,0.136,0.103,0.201,0.155c0.06,0.05,0.172,0.052,0.168,0.167c0.111,0.001,0.121,0.119,0.194,0.163
	c0.078,0.047,0.16,0.089,0.229,0.146c0.107,0.09,0.26,0.133,0.315,0.285c0.03,0,0.062,0,0.091,0
	c0.048,0.058,0.052,0.155,0.156,0.148c0.018,0.098,0.107,0.131,0.165,0.193c0.062,0.066,0.093,0.165,0.159,0.221
	c0.159,0.135,0.241,0.324,0.368,0.48c0.087,0.107,0.153,0.236,0.208,0.37c0.06,0.143,0.13,0.288,0.212,0.419
	c0.063,0.103,0.08,0.211,0.124,0.312c0.042,0.099,0.104,0.184,0.095,0.301c-0.006,0.075,0.066,0.14,0.045,0.222
	c0.146,0.246,0.083,0.518,0.099,0.792c0.014,0.006,0.036,0.011,0.051,0.024c0.092,0.097,0.217,0.138,0.324,0.208
	c0.108,0.071,0.215,0.146,0.315,0.229c0.053,0.044,0.051,0.148,0.154,0.143c0.016,0.125,0.164,0.142,0.204,0.25
	c0.04,0.105,0.166,0.165,0.158,0.298c0.126,0.049,0.105,0.177,0.163,0.284c-0.072,0.049-0.099,0.149-0.231,0.132
	c-0.052-0.042-0.104-0.099-0.144-0.179c-0.033-0.069-0.113-0.109-0.17-0.164c-0.063-0.059-0.103-0.146-0.182-0.186
	c-0.07-0.034-0.108-0.105-0.18-0.142c-0.073-0.039-0.139-0.092-0.201-0.135c-0.048-0.019-0.09-0.038-0.132-0.051
	c-0.122-0.039-0.223-0.115-0.365-0.119c-0.099-0.002-0.201-0.093-0.293-0.156c-0.139-0.097-0.268-0.208-0.407-0.305
	c-0.076-0.052-0.15-0.107-0.212-0.172c-0.061-0.064-0.135-0.108-0.195-0.175c-0.1-0.11-0.19-0.227-0.284-0.341
	c-0.099-0.119-0.18-0.25-0.276-0.368c-0.132-0.161-0.215-0.347-0.321-0.521c-0.081-0.136-0.122-0.287-0.212-0.422
	c-0.088-0.132-0.125-0.301-0.174-0.456c-0.041-0.122-0.064-0.247-0.1-0.371c-0.028-0.104-0.048-0.207-0.051-0.318
	c-0.005-0.139-0.037-0.275-0.062-0.431c-0.117-0.054-0.262-0.086-0.409-0.121c-0.143-0.033-0.278-0.038-0.417-0.035
	c-0.158,0.005-0.31-0.034-0.463-0.048c-0.152-0.013-0.316,0.03-0.458-0.011c-0.213-0.061-0.424-0.021-0.634-0.042
	c-0.114-0.01-0.229-0.037-0.343-0.045c-0.113-0.008-0.232,0.022-0.337-0.008c-0.12-0.037-0.237-0.089-0.36-0.119
	c-0.058-0.015-0.119-0.015-0.19,0.009c0.084,0.064,0.158,0.143,0.249,0.188c0.104,0.052,0.17,0.137,0.252,0.209
	c0.146-0.051,0.13,0.138,0.243,0.164c0.097,0.021,0.185,0.114,0.254,0.194s0.216,0.079,0.222,0.228
	c0.038,0.002,0.076,0.004,0.094,0.005c0.083,0.087,0.147,0.176,0.229,0.237c0.161,0.122,0.311,0.258,0.463,0.389
	c0.084,0.073,0.148,0.199,0.243,0.227c0.112,0.034,0.117,0.144,0.207,0.19c0.071,0.038,0.166,0.111,0.198,0.195
	c0.035,0.091,0.176,0.077,0.16,0.194c0.11-0.002,0.11,0.135,0.195,0.16C29,22.479,29,22.576,29.079,22.623
	c0.108,0.064,0.181,0.189,0.257,0.298c0.127,0.18,0.243,0.366,0.364,0.55c0.052,0.076,0.107,0.15,0.169,0.238
	c-0.051,0.141,0.134,0.188,0.165,0.322c0.027,0.121,0.112,0.244,0.179,0.357c0.067,0.111,0.081,0.25,0.172,0.339
	c0.109,0.105,0.026,0.284,0.177,0.368L30.626,25.365z M0.849,17.095c0.048,0.039,0.08,0.084,0.155,0.097
	c0.184,0.033,0.365,0.088,0.544,0.143c0.058,0.017,0.107,0.062,0.174,0.046c0.121-0.028,0.226,0.04,0.338,0.058
	c0.028,0.005,0.053,0.035,0.081,0.037c0.234,0.019,0.47,0.049,0.705,0.048c1.725-0.016,3.451,0.048,5.176-0.044
	c0.241-0.013,0.483,0.002,0.726-0.003c0.242-0.005,0.489,0.036,0.729-0.046c0.462,0.035,0.919-0.067,1.381-0.051
	c0.274,0.01,0.548,0.006,0.822,0.001c0.268-0.006,0.538,0.036,0.802-0.047c0.534,0.027,1.066-0.031,1.6-0.05
	c0.089-0.003,0.177-0.027,0.269-0.042c0-0.331,0-0.643,0-0.968c-0.039-0.017-0.079-0.037-0.122-0.05
	c-0.036-0.012-0.085-0.002-0.11-0.025c-0.077-0.068-0.16-0.105-0.263-0.127c-0.092-0.02-0.165-0.115-0.257-0.134
	c-0.18-0.038-0.326-0.146-0.498-0.2c-0.099-0.031-0.212-0.057-0.284-0.123c-0.075-0.067-0.167-0.093-0.246-0.109
	c-0.108-0.021-0.161-0.117-0.258-0.141c-0.03-0.008-0.062-0.005-0.092-0.014c-0.043-0.012-0.081-0.038-0.125-0.046
	c-0.091-0.018-0.135-0.149-0.25-0.098c-0.079-0.058-0.17-0.095-0.258-0.133c-0.049-0.021-0.106-0.024-0.147-0.054
	c-0.075-0.057-0.153-0.087-0.246-0.108c-0.091-0.021-0.168-0.097-0.256-0.137c-0.048-0.021-0.121,0-0.156-0.028
	c-0.151-0.118-0.366-0.107-0.501-0.253c-0.005-0.005-0.015-0.012-0.02-0.011c-0.136,0.029-0.229-0.069-0.341-0.111
	c-0.125-0.047-0.243-0.113-0.366-0.167c-0.055-0.025-0.113-0.037-0.167-0.061c-0.138-0.058-0.274-0.117-0.409-0.181
	c-0.142-0.065-0.31-0.072-0.431-0.187c-0.015-0.013-0.043-0.013-0.064-0.019c-0.065-0.016-0.144-0.016-0.193-0.054
	c-0.079-0.059-0.156-0.091-0.254-0.094c-0.032,0-0.063-0.037-0.096-0.056c-0.053-0.03-0.105-0.08-0.158-0.081
	c-0.087-0.002-0.143-0.062-0.209-0.082c-0.182-0.054-0.352-0.123-0.52-0.208c-0.054-0.027-0.137-0.012-0.194-0.054
	c-0.147-0.107-0.352-0.093-0.488-0.223c-0.015-0.014-0.043-0.012-0.065-0.018c-0.064-0.018-0.142-0.019-0.192-0.056
	c-0.08-0.057-0.157-0.094-0.254-0.09c-0.021,0-0.047-0.011-0.062-0.026c-0.099-0.108-0.224-0.132-0.33-0.119
	c-0.079-0.041-0.13-0.073-0.186-0.095c-0.097-0.04-0.208-0.057-0.29-0.115c-0.105-0.073-0.213-0.084-0.328-0.079
	c-0.078-0.083-0.16-0.149-0.281-0.147c-0.028,0-0.057-0.016-0.085-0.027c-0.208-0.079-0.416-0.161-0.626-0.237
	c-0.057-0.021-0.141-0.004-0.175-0.04c-0.142-0.148-0.352-0.124-0.519-0.217c-0.156-0.088-0.355-0.109-0.523-0.191
	c-0.064-0.032-0.132,0.007-0.2-0.045c-0.125-0.097-0.291-0.113-0.44-0.16c-0.16-0.051-0.315-0.125-0.492-0.099
	c-0.019,0.003-0.042-0.013-0.063-0.02C1.022,11.059,0.783,11.009,0.537,11C0.4,10.997,0.25,11.035,0.13,10.989
	c-0.105-0.04-0.201-0.021-0.298-0.038c-0.098-0.017-0.195-0.044-0.294-0.046c-0.305-0.006-0.612-0.002-0.918-0.002
	c-0.048,0-0.115-0.02-0.142,0.004c-0.093,0.086-0.207,0.009-0.295,0.048c-0.106,0.047-0.213,0.05-0.321,0.042
	c-0.12-0.009-0.224,0.04-0.33,0.078c-0.05,0.018-0.097,0.07-0.14,0.064c-0.182-0.023-0.276,0.16-0.439,0.173
	c-0.158,0.143-0.326,0.277-0.472,0.431c-0.119,0.125-0.143,0.313-0.25,0.452c-0.019,0.025-0.003,0.078-0.003,0.119
	c0,0.161-0.006,0.322,0.002,0.483c0.006,0.106,0.025,0.213,0.05,0.317c0.01,0.041,0.051,0.075,0.075,0.114
	c0.011,0.018,0.017,0.042,0.018,0.064c0.013,0.21,0.141,0.377,0.225,0.559c0.069,0.15,0.17,0.285,0.26,0.424
	c0.021,0.034,0.055,0.058,0.094,0.099c0.001,0.018,0.003,0.056,0.006,0.091c0.072,0.017,0.122,0.041,0.143,0.113
	c0.056,0.195,0.266,0.279,0.343,0.462c0.094,0.016,0.091,0.134,0.17,0.161c0.095,0.034,0.101,0.146,0.181,0.194
	c0.028,0.017,0.035,0.091,0.054,0.092c0.104,0.006,0.124,0.121,0.206,0.149c0.085,0.03,0.083,0.166,0.196,0.16
	c0.121,0.206,0.375,0.246,0.522,0.421c0.103,0.016,0.166,0.115,0.256,0.14c0.14,0.039,0.239,0.162,0.389,0.171
	c0.113,0.122,0.284,0.133,0.416,0.221c0.031,0.021,0.067,0.045,0.102,0.046c0.18,0.005,0.304,0.177,0.489,0.16
	C0.539,17.085,0.695,17.088,0.849,17.095z M39.752,17.118c0.097-0.037,0.188-0.001,0.26-0.076c0.108,0.046,0.131-0.091,0.224-0.101
	c0.203-0.019,0.372-0.157,0.572-0.191c0.027-0.004,0.047-0.043,0.072-0.06c0.026-0.016,0.054-0.024,0.083-0.035
	c0.041-0.016,0.084-0.048,0.124-0.045c0.075,0.006,0.084-0.078,0.106-0.082c0.126-0.022,0.213-0.118,0.323-0.158
	c0.247-0.092,0.434-0.272,0.655-0.4c0.077-0.044,0.139-0.137,0.215-0.177c0.091-0.048,0.109-0.149,0.204-0.195
	c0.089-0.044,0.152-0.139,0.224-0.216c0.05-0.055,0.083-0.15,0.144-0.169c0.104-0.033,0.121-0.139,0.205-0.19
	c0.085-0.052,0.122-0.175,0.194-0.251c0.096-0.104,0.125-0.27,0.281-0.312c0.009-0.04,0.017-0.111,0.021-0.11
	c0.09,0.003,0.095-0.081,0.112-0.124c0.054-0.128,0.139-0.233,0.211-0.349c0.031-0.051,0.072-0.099,0.094-0.153
	c0.032-0.084,0.026-0.212,0.082-0.251c0.109-0.072,0.054-0.175,0.091-0.259c0.093-0.203,0.146-0.421,0.122-0.651
	c-0.008-0.063-0.002-0.128-0.002-0.193c-0.002-0.048,0.013-0.106-0.009-0.141c-0.136-0.218-0.173-0.495-0.405-0.656
	c-0.121-0.083-0.218-0.231-0.348-0.27c-0.122-0.036-0.189-0.173-0.322-0.156c-0.134,0.019-0.215-0.126-0.346-0.102
	c-0.035-0.061-0.097-0.039-0.15-0.046c-0.113-0.015-0.227,0.019-0.346-0.04c-0.097-0.048-0.234,0.025-0.339-0.056
	c-0.395,0-0.788,0-1.185,0C40.81,11,40.666,10.91,40.557,10.958c-0.124,0.055-0.247,0.047-0.368,0.04
	c-0.275-0.015-0.54,0.057-0.804,0.107c-0.083,0.016-0.165,0.042-0.248,0.038c-0.067-0.003-0.116,0.028-0.176,0.047
	c-0.141,0.048-0.3,0.057-0.431,0.125c-0.134,0.071-0.276,0.118-0.417,0.157c-0.137,0.039-0.261,0.111-0.407,0.131
	c-0.14,0.018-0.251,0.136-0.397,0.147c-0.098,0.008-0.157,0.1-0.24,0.114c-0.146,0.023-0.271,0.093-0.405,0.136
	c-0.147,0.048-0.289,0.126-0.442,0.154c-0.113,0.021-0.202,0.064-0.286,0.151c-0.119-0.007-0.227,0.022-0.342,0.089
	c-0.151,0.088-0.333,0.125-0.5,0.191c-0.096,0.039-0.205,0.042-0.288,0.123c-0.02,0.019-0.056,0.033-0.081,0.029
	c-0.111-0.011-0.181,0.075-0.275,0.101c-0.093,0.025-0.184,0.061-0.273,0.096c-0.029,0.011-0.052,0.032-0.077,0.049
	c-0.026,0.016-0.053,0.046-0.078,0.044c-0.1-0.009-0.17,0.048-0.253,0.089c-0.086,0.043-0.188,0.054-0.277,0.09
	c-0.173,0.069-0.341,0.146-0.513,0.221c-0.027,0.012-0.055,0.037-0.08,0.036c-0.101-0.002-0.179,0.034-0.252,0.1
	c-0.025,0.024-0.066,0.047-0.1,0.044c-0.108-0.008-0.192,0.058-0.27,0.106c-0.091,0.056-0.203,0.015-0.278,0.09
	c-0.021,0.021-0.051,0.035-0.076,0.051c-0.025,0.017-0.052,0.043-0.077,0.044c-0.205,0.005-0.369,0.13-0.545,0.207
	c-0.167,0.074-0.366,0.093-0.508,0.23c-0.126,0.009-0.216,0.121-0.328,0.137c-0.131,0.019-0.222,0.092-0.33,0.141
	c-0.114,0.052-0.247,0.065-0.346,0.157c-0.117-0.042-0.182,0.068-0.272,0.101c-0.042,0.014-0.076,0.043-0.126,0.047
	c-0.059,0.004-0.144,0.013-0.168,0.051c-0.061,0.092-0.173,0.066-0.238,0.132c-0.117-0.049-0.149,0.113-0.247,0.103
	c-0.071-0.007-0.115,0.023-0.169,0.064c-0.056,0.042-0.121,0.089-0.207,0.084c-0.04-0.002-0.092,0.02-0.123,0.047
	c-0.142,0.121-0.327,0.144-0.487,0.229c-0.199,0.107-0.424,0.18-0.634,0.275c-0.103,0.046-0.223,0.056-0.3,0.154
	c-0.012,0.013-0.043,0.018-0.064,0.017c-0.092-0.008-0.183,0.025-0.226,0.09c-0.066,0.104-0.195,0.002-0.252,0.099
	c-0.008,0.013-0.02,0.024-0.018,0.023c0,0.325,0,0.636,0,0.938c0.085,0.021,0.158,0.052,0.232,0.057
	c0.228,0.014,0.458-0.029,0.681,0.05c0.525-0.03,1.049,0.04,1.575,0.048c0.282,0.004,0.563-0.004,0.845,0.002
	c0.275,0.006,0.55-0.006,0.829,0.039c0.301,0.049,0.616-0.029,0.92,0.057c0.67,0.016,1.341-0.042,2.01,0.048
	c1.425,0,2.852,0.002,4.276-0.002c0.276,0,0.553-0.03,0.826-0.047c0.022,0,0.046-0.007,0.065-0.018
	c0.117-0.065,0.245-0.083,0.379-0.08c0.041,0.001,0.084-0.033,0.127-0.038c0.16-0.018,0.296-0.116,0.466-0.112
	C39.574,17.23,39.665,17.157,39.752,17.118z M14.508,22.311c0.202,0,0.395,0,0.587,0c0.041,0,0.089-0.016,0.119,0.003
	c0.163,0.094,0.351,0.012,0.521,0.087c0.088,0.039,0.207,0,0.312,0.009c0.106,0.009,0.21-0.018,0.322,0.038
	c0.084,0.041,0.205,0.003,0.311,0.009c0.363,0.021,0.73-0.053,1.091,0.048c0.342-0.034,0.68,0.049,1.02,0.048
	c1.088-0.001,2.176,0.006,3.262-0.003c0.333-0.002,0.663,0.016,0.997-0.034c0.381-0.061,0.776-0.04,1.162-0.061
	c0.252-0.013,0.502,0.018,0.757-0.039c0.218-0.046,0.451,0,0.68-0.052c0.164-0.04,0.335-0.046,0.505-0.067
	c-0.019-0.1-0.034-0.188-0.051-0.279c-0.017-0.081-0.008-0.186-0.055-0.24c-0.075-0.09-0.089-0.192-0.118-0.292
	c-0.06-0.204-0.191-0.371-0.277-0.562c-0.02-0.04-0.086-0.059-0.13-0.089c0-0.03,0-0.062,0-0.105
	c-0.135,0.009-0.135-0.126-0.202-0.192c-0.064-0.064-0.112-0.144-0.178-0.206c-0.073-0.069-0.157-0.128-0.242-0.194
	c-0.016,0-0.057,0.008-0.061-0.002c-0.057-0.117-0.199-0.119-0.274-0.206c-0.046-0.051-0.099-0.05-0.146-0.017
	c-0.151,0.101-0.289,0.225-0.483,0.24c-0.027,0.002-0.067,0.014-0.081,0.034c-0.065,0.104-0.188,0.094-0.279,0.144
	c-0.055,0.027-0.106,0.054-0.185,0.092c-0.04,0.005-0.113,0.001-0.179,0.021c-0.167,0.052-0.322,0.115-0.502,0.139
	c-0.238,0.031-0.461,0.165-0.716,0.135c-0.007-0.002-0.02-0.004-0.022,0c-0.075,0.107-0.225-0.012-0.299,0.097
	c-0.118-0.013-0.229,0.021-0.344,0.043c-0.109,0.021-0.224,0.005-0.337,0.005c-0.484,0-0.968,0.004-1.45-0.003
	c-0.171-0.002-0.35-0.005-0.509-0.055c-0.095-0.028-0.182-0.037-0.273-0.037c-0.095-0.001-0.169-0.078-0.271-0.052
	c-0.109,0.028-0.215-0.018-0.317-0.05c-0.058-0.017-0.119-0.031-0.171-0.053c-0.092-0.038-0.183-0.027-0.272-0.044
	c-0.094-0.019-0.189-0.051-0.273-0.097c-0.113-0.062-0.25-0.038-0.36-0.125c-0.078-0.062-0.191-0.08-0.293-0.105
	c-0.095-0.024-0.167-0.096-0.27-0.109c-0.104-0.015-0.141-0.177-0.276-0.149c-0.099-0.138-0.19-0.099-0.287,0.008
	c-0.023,0.025-0.066,0.032-0.1,0.05c-0.071,0.038-0.115,0.121-0.209,0.123c-0.01,0.104-0.129,0.09-0.173,0.165
	c-0.04,0.067-0.114,0.113-0.166,0.175c-0.057,0.062-0.106,0.132-0.155,0.201c-0.069,0.099-0.14,0.199-0.205,0.302
	c-0.059,0.096-0.13,0.188-0.166,0.293c-0.039,0.114-0.126,0.209-0.146,0.325C14.608,21.848,14.452,22.045,14.508,22.311z
	 M14.499,27.234c0.266,0.013,0.51,0.084,0.75,0.091c0.31,0.01,0.612,0.067,0.921,0.064c0.275-0.003,0.55-0.029,0.828,0.037
	c0.179,0.042,0.376-0.011,0.558,0.056c0.591-0.036,1.178,0.059,1.768,0.048c0.435-0.005,0.869,0,1.304,0
	c0.442,0,0.888-0.014,1.329,0.004c0.43,0.018,0.855-0.059,1.285-0.056c0.218,0.002,0.436,0.021,0.658-0.036
	c0.177-0.046,0.37-0.018,0.558-0.048c0.221-0.036,0.45-0.018,0.676-0.007c0.221,0.012,0.433-0.087,0.656-0.053
	c0.053,0.009,0.106,0.002,0.146,0.002c0.144-0.159,0.123-0.348,0.16-0.514c0.021-0.1-0.015-0.213,0.007-0.312
	c0.047-0.212,0.116-0.418,0.093-0.638c0.101-0.146,0.023-0.305,0.058-0.478c-0.142,0.027-0.26-0.024-0.386,0.05
	c-0.078,0.048-0.191,0.043-0.29,0.053c-0.172,0.017-0.34,0.01-0.513,0.039c-0.227,0.037-0.459,0.097-0.685,0.097
	c-0.389,0.002-0.774,0.07-1.161,0.06c-0.059-0.002-0.126-0.021-0.168,0.004c-0.127,0.077-0.269,0.012-0.391,0.049
	c-0.14,0.043-0.276,0.043-0.417,0.043c-0.958,0-1.916,0.006-2.874-0.002c-0.315-0.003-0.633,0.042-0.947-0.041
	c-0.133-0.034-0.275-0.009-0.416-0.046c-0.136-0.035-0.288-0.001-0.434-0.009c-0.138-0.009-0.275-0.036-0.414-0.045
	c-0.111-0.009-0.226,0.005-0.338-0.005c-0.106-0.009-0.211,0.02-0.322-0.037c-0.087-0.044-0.208-0.026-0.315-0.048
	c-0.213-0.045-0.437-0.042-0.654-0.057c-0.072-0.005-0.149,0.014-0.217-0.003c-0.194-0.046-0.385-0.117-0.589-0.095
	c-0.13-0.1-0.272-0.023-0.4-0.05c0.012,0.138,0.039,0.261,0.028,0.38c-0.026,0.286,0.069,0.565,0.053,0.85
	c-0.003,0.016-0.008,0.041,0,0.047c0.09,0.073,0.039,0.188,0.087,0.28C14.533,26.993,14.499,27.114,14.499,27.234z M16.36,32.362
	c0.157,0.008,0.295,0.024,0.433,0.04c0.312,0.037,0.629,0.023,0.946,0.049c0.464,0.037,0.933,0.001,1.398,0.011
	c0.469,0.011,0.938-0.043,1.406,0.043c0.124,0.022,0.258-0.001,0.387,0.005c0.125,0.007,0.237-0.058,0.364-0.054
	c0.403,0.013,0.806,0.005,1.207,0.005c0.283,0,0.565,0.008,0.847-0.003c0.282-0.01,0.563-0.035,0.823-0.054
	c0.117-0.098,0.174-0.219,0.241-0.336c0.071-0.125,0.148-0.247,0.199-0.377c0.051-0.134,0.156-0.235,0.187-0.382
	c0.029-0.138,0.163-0.237,0.161-0.393c0.117-0.1,0.089-0.26,0.169-0.381c-0.031-0.019-0.062-0.051-0.078-0.044
	c-0.168,0.069-0.34,0.082-0.521,0.087c-0.291,0.005-0.583,0.027-0.873,0.044c-0.017,0.001-0.041-0.006-0.047,0.003
	c-0.062,0.08-0.148,0.032-0.223,0.048c-0.082,0.014-0.164,0.043-0.246,0.045c-0.281,0.006-0.563,0.016-0.845-0.001
	c-0.287-0.019-0.565,0.053-0.848,0.051c-0.38-0.002-0.758,0.006-1.137-0.002c-0.371-0.006-0.741,0.009-1.115-0.037
	c-0.472-0.06-0.953,0.037-1.428-0.054c-0.128-0.023-0.267,0.015-0.391-0.052c-0.271,0.036-0.531-0.065-0.801-0.05
	c-0.12,0.008-0.262,0.04-0.356-0.009c-0.095-0.05-0.188-0.003-0.269-0.057c-0.093-0.061-0.2-0.017-0.302-0.029
	c-0.051-0.008-0.105,0.015-0.155-0.035c-0.021-0.022-0.084-0.004-0.15-0.004c0.028,0.091,0.045,0.165,0.073,0.235
	c0.022,0.055,0.069,0.102,0.084,0.157c0.079,0.283,0.239,0.53,0.346,0.799c0.027,0.072,0.136,0.102,0.1,0.201
	C16.064,32.024,16.15,32.238,16.36,32.362z M21.307,7.87C21.25,7.848,21.2,7.809,21.154,7.813c-0.264,0.028-0.52-0.045-0.778-0.058
	c-0.28-0.014-0.55,0.08-0.825,0.053c-0.101-0.01-0.181,0.029-0.271,0.074c0.017,0.279,0.034,0.561,0.052,0.844
	c0,0.008-0.003,0.02,0,0.023c0.096,0.086,0.031,0.197,0.049,0.295c0.018,0.105,0.045,0.211,0.046,0.318
	c0.006,0.411,0.002,0.822,0.002,1.232c0,0.048,0.017,0.115-0.007,0.139c-0.064,0.064-0.028,0.136-0.042,0.203
	c-0.013,0.066-0.038,0.131-0.046,0.197c-0.01,0.079,0.019,0.175-0.018,0.233c-0.052,0.082-0.018,0.155-0.032,0.229
	c-0.015,0.071-0.031,0.143-0.048,0.225c0.11,0,0.216,0.024,0.298-0.008c0.069-0.027,0.132-0.033,0.201-0.042
	c0.074-0.01,0.146-0.04,0.221-0.045c0.359-0.027,0.712,0.027,1.068,0.047c0.009,0.001,0.02-0.003,0.023,0.001
	c0.096,0.1,0.207,0.024,0.32,0.05c-0.022-0.081-0.045-0.136-0.053-0.195c-0.021-0.17-0.033-0.34-0.05-0.511
	c-0.002-0.016,0.004-0.035-0.002-0.047c-0.078-0.138-0.073-0.297-0.088-0.445c-0.023-0.247-0.013-0.499-0.004-0.749
	c0.007-0.251-0.029-0.502,0.041-0.754c0.035-0.131-0.02-0.282,0.053-0.414C21.229,8.432,21.352,8.163,21.307,7.87z M18.412,8.699
	c-0.067-0.022-0.148-0.072-0.172-0.052c-0.08,0.066-0.173,0.005-0.249,0.046c-0.099,0.051-0.179,0.138-0.298,0.153
	c-0.071,0.131-0.264,0.12-0.319,0.27c-0.196,0.087-0.325,0.26-0.483,0.394c-0.18,0.153-0.341,0.329-0.483,0.522
	c-0.151,0.207-0.304,0.413-0.408,0.647c-0.056,0.122-0.104,0.248-0.144,0.375c-0.014,0.046-0.001,0.1,0.028,0.156
	c0.047,0.091,0.056,0.202,0.084,0.315c0.362,0.303,0.35,0.216,0.841,0.138c0.009-0.028,0.019-0.056,0.028-0.083
	c0.038,0,0.07,0,0.103,0c0.036-0.064,0.049-0.15,0.15-0.15c0.017-0.093,0.084-0.138,0.166-0.166c0-0.035,0-0.067,0-0.099
	c0.1-0.005,0.139-0.108,0.134-0.155c-0.011-0.104,0.084-0.129,0.106-0.201c0.022-0.071,0.053-0.14,0.083-0.207
	c0.032-0.068,0.097-0.134,0.096-0.2c-0.001-0.099,0.09-0.121,0.112-0.193c0.023-0.076,0.022-0.183,0.086-0.219
	c0.101-0.058,0.045-0.168,0.109-0.228c0.013-0.011,0.027-0.021,0.033-0.034c0.069-0.124,0.158-0.243,0.199-0.376
	c0.045-0.147,0.104-0.281,0.197-0.407C18.412,8.87,18.412,8.79,18.412,8.699z M22.194,8.694c-0.039,0.182,0.013,0.341,0.088,0.495
	c0.015,0.027,0.042,0.05,0.046,0.078c0.01,0.097,0.068,0.164,0.121,0.241c0.051,0.07,0.058,0.174,0.109,0.24
	c0.046,0.055,0.05,0.109,0.069,0.167c0.021,0.062,0.093,0.108,0.111,0.17c0.048,0.16,0.164,0.284,0.211,0.444
	c0.018,0.063,0.104,0.12,0.098,0.173c-0.015,0.112,0.06,0.171,0.103,0.25c0.179,0.323,0.412,0.594,0.771,0.773
	c0.069,0,0.166,0,0.262,0c0.27-0.002,0.441-0.162,0.465-0.437c0.003-0.024-0.009-0.058,0.004-0.07
	c0.068-0.067,0.05-0.138,0.026-0.216c-0.026-0.079-0.023-0.167-0.056-0.243c-0.101-0.246-0.266-0.454-0.405-0.677
	c-0.036-0.059-0.093-0.073-0.13-0.112c-0.072-0.075-0.099-0.212-0.181-0.253c-0.107-0.053-0.13-0.182-0.245-0.211
	c-0.037-0.119-0.158-0.158-0.24-0.229c-0.087-0.075-0.151-0.176-0.262-0.227c-0.088-0.041-0.179-0.088-0.248-0.154
	C22.709,8.703,22.477,8.636,22.194,8.694z"/>
</svg>
